…
look for pizza places

``` r
rest_inspec %>% 
  filter(str_detect(dba, "Pizza"))
```

    ## # A tibble: 64 × 26
    ##       camis dba          boro  building street zipcode phone cuisine_description
    ##       <dbl> <chr>        <chr> <chr>    <chr>    <dbl> <chr> <chr>              
    ##  1 50075286 Jr's Pizza … Manh… 95       MACDO…   10012 2122… Pizza              
    ##  2 50075286 Jr's Pizza … Manh… 95       MACDO…   10012 2122… Pizza              
    ##  3 50075286 Jr's Pizza … Manh… 95       MACDO…   10012 2122… Pizza              
    ##  4 50018453 Radio City … Manh… 142      W 49T…   10019 2128… Pizza/Italian      
    ##  5 50018453 Radio City … Manh… 142      W 49T…   10019 2128… Pizza/Italian      
    ##  6 50018453 Radio City … Manh… 142      W 49T…   10019 2128… Pizza/Italian      
    ##  7 50018453 Radio City … Manh… 142      W 49T…   10019 2128… Pizza/Italian      
    ##  8 50018453 Radio City … Manh… 142      W 49T…   10019 2128… Pizza/Italian      
    ##  9 50018453 Radio City … Manh… 142      W 49T…   10019 2128… Pizza/Italian      
    ## 10 50018453 Radio City … Manh… 142      W 49T…   10019 2128… Pizza/Italian      
    ## # ℹ 54 more rows
    ## # ℹ 18 more variables: inspection_date <dttm>, action <chr>,
    ## #   violation_code <chr>, violation_description <chr>, critical_flag <chr>,
    ## #   score <dbl>, record_date <dttm>, inspection_type <chr>, latitude <dbl>,
    ## #   longitude <dbl>, community_board <dbl>, council_district <chr>,
    ## #   census_tract <chr>, bin <dbl>, bbl <dbl>, nta <chr>, grade <chr>,
    ## #   grade_date <dttm>
…
